{
  "profiles": {
    "IIS Express": {
      "commandName": "IISExpress",
      "launchBrowser": true,
      "environmentVariables": {
        "ASPNETCORE_ENVIRONMENT": "Development"
      },
      "inspectUri": "{wsProtocol}://{url.hostname}:{url.port}/_framework/debug/ws-proxy?browser={browserInspectUri}"
    },
    "ExcursioHub.Server": {
      "commandName": "Project",
      "launchBrowser": true,
      "environmentVariables": {
        "ASPNETCORE_ENVIRONMENT": "Development"
      },
      "dotnetRunMessages": "true",
      "inspectUri": "{wsProtocol}://{url.hostname}:{url.port}/_framework/debug/ws-proxy?browser={browserInspectUri}",
      "applicationUrl": "https://localhost:5001;http://localhost:5000"
    },
    "Watch": {
      "commandName": "Executable",
      "executablePath": "dotnet",
      "commandLineArgs": "watch --verbose run",
      "workingDirectory": "$(ProjectDir)",
      "launchBrowser": true,
      "environmentVariables": {
        "ASPNETCORE_ENVIRONMENT": "Development"
      },
      "inspectUri": "{wsProtocol}://{url.hostname}:{url.port}/_framework/debug/ws-proxy?browser={browserInspectUri}",
      "applicationUrl": "https://localhost:5001;http://localhost:5000",
      "dotnetRunMessages": "true"
    },
    "IIS": {
      "commandName": "IIS",
      "launchBrowser": true,
      "launchUrl": "https://localhost/ExcursioHub.Server",
      "environmentVariables": {
        "ASPNETCORE_ENVIRONMENT": "Development"
      },
      "sqlDebugging": false
    }
  },
  "$schema": "http://json.schemastore.org/launchsettings.json",
  "iisSettings": {
    "windowsAuthentication": false,
    "anonymousAuthentication": true,
    "iis": {
      "applicationUrl": "https://localhost/ExcursioHub.Server",
      "sslPort": 0
    },
    "iisExpress": {
      "applicationUrl": "http://localhost:4759",
      "sslPort": 44305
    }
  }
}